<?xml version="1.0" encoding="UTF-8"?>
<svg xmlns="http://www.w3.org/2000/svg" xmlns:xlink="http://www.w3.org/1999/xlink"
     width="1890" height="600" viewBox="0 0 1890 600">
<defs>
<linearGradient x1="0%" y1="0%" x2="0%" y2="100%" id="d0">
<stop offset="0%" stop-color="#303030" />
<stop offset="25%" stop-color="#616161" />
<stop offset="50%" stop-color="#929292" />
<stop offset="75%" stop-color="#c4c4c4" />
<stop offset="100%" stop-color="#f5f5f5" />
</linearGradient>
</defs>
<rect x="0" y="0" width="1890" height="600" fill="#ffffff" />
<g transform="translate( 300, 125 )">
<g>
<title>[0.1,2.5]</title>
<rect x="0.0" y="0.0" width="520.0" height="108.33333333333333" shape-rendering="crispEdges" fill="#ffffff" stroke="none" />
</g>
<g>
<title>[0.75,1.75]</title>
<rect x="140.8333274142612" y="0.0" width="216.6666580571072" height="108.33333333333333" shape-rendering="crispEdges" fill="#bcbc21" />
</g>
<g>
<title>[1. ,6.9]</title>
<rect x="520.0" y="0.0" width="520.0" height="108.33333333333333" shape-rendering="crispEdges" fill="#ffffff" stroke="none" />
</g>
<g>
<title>[4.75,6.9 ]</title>
<rect x="850.5084692339417" y="0.0" width="189.4915307660583" height="108.33333333333333" shape-rendering="crispEdges" fill="#bcbc21" />
</g>
<g>
<title>[0.1,2.5]</title>
<rect x="0.0" y="108.33333333333333" width="520.0" height="108.33333333333333" shape-rendering="crispEdges" fill="#ffffff" stroke="none" />
</g>
<g>
<title>[0.75,2.5 ]</title>
<rect x="140.8333274142612" y="108.33333333333333" width="379.16665159993767" height="108.33333333333333" shape-rendering="crispEdges" fill="#ff7e0e" />
</g>
<g>
<title>[1. ,6.9]</title>
<rect x="520.0" y="108.33333333333333" width="520.0" height="108.33333333333333" shape-rendering="crispEdges" fill="#ffffff" stroke="none" />
</g>
<g>
<title>[1.  ,4.75]</title>
<rect x="520.0" y="108.33333333333333" width="330.5084692339417" height="108.33333333333333" shape-rendering="crispEdges" fill="#ff7e0e" />
</g>
<g>
<title>[0.1,2.5]</title>
<rect x="0.0" y="216.66666666666666" width="520.0" height="108.33333333333333" shape-rendering="crispEdges" fill="#ffffff" stroke="none" />
</g>
<g>
<title>[0.1 ,0.75]</title>
<rect x="0.0" y="216.66666666666666" width="140.8333274142612" height="108.33333333333333" shape-rendering="crispEdges" fill="#1f77b3" />
</g>
<rect x="0" y="0" width="1040" height="325" fill="none" stroke="#000000" stroke-width="2" />
<g transform="translate( 303.3333209570916, 375 )">
<text x="0" y="0" font-size="25" transform="rotate( 10 )" text-anchor="start" fill="#000000" dy="0em">1.5 | petal width (cm) | 0.55</text>
</g>
<path d="M520.0,0 L520.0,325" stroke="#000000" stroke-width="2" />
<g transform="translate( 863.7288080032994, 375 )">
<text x="0" y="0" font-size="25" transform="rotate( 10 )" text-anchor="start" fill="#000000" dy="0em">4.9 | petal length (cm) | 0.45</text>
</g>
<g>
<title>1.5</title>
<path d="M303.3333209570916,0 L303.3333209570916,345" stroke="#000000" stroke-width="3.4" stroke-dasharray="7,14" />
</g>
<g>
<title>4.9</title>
<path d="M863.7288080032994,0 L863.7288080032994,345" stroke="#000000" stroke-width="3.4" stroke-dasharray="7,14" />
</g>
<text x="-120" y="66.66666666666666" font-size="25" text-anchor="end" fill="#000000" dy="0em">r 3</text>
<path d="M0,108.33333333333333 L1040,108.33333333333333" stroke="#000000" stroke-width="2" />
<text x="-120" y="175.0" font-size="25" text-anchor="end" fill="#000000" dy="0em">r 2</text>
<path d="M0,216.66666666666666 L1040,216.66666666666666" stroke="#000000" stroke-width="2" />
<text x="-120" y="283.3333333333333" font-size="25" text-anchor="end" fill="#000000" dy="0em">r 1</text>
</g>
<g transform="translate( 300, 125 )">
<text x="-67.5" y="-41.25" font-size="25" text-anchor="middle" fill="#000000" dy="0em">Rule</text>
<text x="-67.5" y="-15" font-size="25" text-anchor="middle" fill="#000000" dy="0em">Support</text>
<g>
<title>0.08</title>
<rect x="-105" y="0.0" width="6.0" height="108.33333333333333" shape-rendering="crispEdges" fill="#e6e6e6" stroke="#000000" stroke-width="2" />
<rect x="-105" y="0.0" width="75" height="108.33333333333333" shape-rendering="crispEdges" fill="none" fill-opacity="0.0" stroke="#000000" stroke-width="2" />
</g>
<g>
<title>0.88</title>
<rect x="-105" y="108.33333333333333" width="66.0" height="108.33333333333333" shape-rendering="crispEdges" fill="#474747" stroke="#000000" stroke-width="2" />
<rect x="-105" y="108.33333333333333" width="75" height="108.33333333333333" shape-rendering="crispEdges" fill="none" fill-opacity="0.0" stroke="#000000" stroke-width="2" />
</g>
<g>
<title>1.0</title>
<rect x="-105" y="216.66666666666666" width="75.0" height="108.33333333333333" shape-rendering="crispEdges" fill="#303030" stroke="#000000" stroke-width="2" />
<rect x="-105" y="216.66666666666666" width="75" height="108.33333333333333" shape-rendering="crispEdges" fill="none" fill-opacity="0.0" stroke="#000000" stroke-width="2" />
</g>
<rect x="-105" y="0" width="75" height="325" fill="none" stroke="#000000" stroke-width="2" />
</g>
<g transform="translate( 1340, 125 )">
<text x="67.5" y="-41.25" font-size="25" text-anchor="middle" fill="#000000" dy="0em">Rule</text>
<text x="67.5" y="-15" font-size="25" text-anchor="middle" fill="#000000" dy="0em">Certainty</text>
<g>
<title>0.0</title>
<rect x="30" y="0.0" width="0.0" height="108.33333333333333" shape-rendering="crispEdges" fill="#1f77b3" stroke="#000000" stroke-width="2" />
</g>
<g>
<title>0.4</title>
<rect x="30.0" y="0.0" width="30.0" height="108.33333333333333" shape-rendering="crispEdges" fill="#ff7e0e" stroke="#000000" stroke-width="2" />
</g>
<g>
<title>0.6</title>
<rect x="60.0" y="0.0" width="45.0" height="108.33333333333333" shape-rendering="crispEdges" fill="#bcbc21" stroke="#000000" stroke-width="2" />
</g>
<g>
<title>0.0</title>
<rect x="30" y="108.33333333333333" width="0.0" height="108.33333333333333" shape-rendering="crispEdges" fill="#1f77b3" stroke="#000000" stroke-width="2" />
</g>
<g>
<title>1.0</title>
<rect x="30.0" y="108.33333333333333" width="75.0" height="108.33333333333333" shape-rendering="crispEdges" fill="#ff7e0e" stroke="#000000" stroke-width="2" />
</g>
<g>
<title>0.0</title>
<rect x="105.0" y="108.33333333333333" width="0.0" height="108.33333333333333" shape-rendering="crispEdges" fill="#bcbc21" stroke="#000000" stroke-width="2" />
</g>
<g>
<title>1.0</title>
<rect x="30" y="216.66666666666666" width="75.0" height="108.33333333333333" shape-rendering="crispEdges" fill="#1f77b3" stroke="#000000" stroke-width="2" />
</g>
<g>
<title>0.0</title>
<rect x="105.0" y="216.66666666666666" width="0.0" height="108.33333333333333" shape-rendering="crispEdges" fill="#ff7e0e" stroke="#000000" stroke-width="2" />
</g>
<g>
<title>0.0</title>
<rect x="105.0" y="216.66666666666666" width="0.0" height="108.33333333333333" shape-rendering="crispEdges" fill="#bcbc21" stroke="#000000" stroke-width="2" />
</g>
<rect x="30" y="0" width="75" height="325" fill="none" stroke="#000000" stroke-width="2" />
<rect x="170" y="0.0" width="35.0" height="35.0" fill="#1f77b3" stroke="#000000" stroke-width="2.0" />
<text x="212.0" y="30.0" font-size="25.0" text-anchor="start" fill="#000000" dy="0em">setosa | 0.0</text>
<rect x="170" y="35.0" width="35.0" height="35.0" fill="#ff7e0e" stroke="#000000" stroke-width="2.0" />
<text x="212.0" y="65.0" font-size="25.0" text-anchor="start" fill="#000000" dy="0em">versicolor | 0.4</text>
<rect x="170" y="70.0" width="35.0" height="35.0" fill="#bcbc21" stroke="#000000" stroke-width="2.0" />
<text x="212.0" y="100.0" font-size="25.0" text-anchor="start" fill="#000000" dy="0em">virginica | 0.6</text>
<rect x="170" y="140.0" width="35.0" height="175.0" fill="url(#d0)" stroke="#000000" stroke-width="2.0" />
<path d="M212.0,140.0 L212.0,315.0" stroke="#000000" stroke-width="2.4" />
<path d="M212.0,140.0 L222.0,140.0" stroke="#000000" stroke-width="2.4" />
<text x="226.0" y="146.25" font-size="25.0" text-anchor="start" fill="#000000" dy="0em">1.0</text>
<path d="M212.0,183.75 L222.0,183.75" stroke="#000000" stroke-width="2.4" />
<text x="226.0" y="190.0" font-size="25.0" text-anchor="start" fill="#000000" dy="0em">0.75</text>
<path d="M212.0,227.5 L222.0,227.5" stroke="#000000" stroke-width="2.4" />
<text x="226.0" y="233.75" font-size="25.0" text-anchor="start" fill="#000000" dy="0em">0.5</text>
<path d="M212.0,271.25 L222.0,271.25" stroke="#000000" stroke-width="2.4" />
<text x="226.0" y="277.5" font-size="25.0" text-anchor="start" fill="#000000" dy="0em">0.25</text>
<path d="M212.0,315.0 L222.0,315.0" stroke="#000000" stroke-width="2.4" />
<text x="226.0" y="321.25" font-size="25.0" text-anchor="start" fill="#000000" dy="0em">0.0</text>
<text x="170" y="350.0" font-size="25.0" text-anchor="start" fill="#000000"><tspan x="170" dy="0em"></tspan><tspan x="170" dy="1em">instance 13</tspan><tspan x="170" dy="1em"></tspan><tspan x="170" dy="1em">type local</tspan><tspan x="170" dy="1em"></tspan><tspan x="170" dy="1em">rules 3</tspan><tspan x="170" dy="1em">by delta change</tspan><tspan x="170" dy="1em"></tspan><tspan x="170" dy="1em">features 2</tspan><tspan x="170" dy="1em">by importance</tspan></text>
</g>
<g transform="translate( 300, 125 )">
<text x="520.0" y="-50" font-size="25" text-anchor="middle" fill="#000000" dy="0em">Feature Importance</text>
<g transform="translate( 0.0, -35 )">
<rect x="0" y="0" width="286.5827851889277" height="20" shape-rendering="crispEdges" fill="#888888" stroke="#000000" stroke-width="2" />
<rect x="0" y="0" width="520.0" height="20" shape-rendering="crispEdges" fill="none" stroke="#000000" stroke-width="2" />
<title>0.55</title>
</g>
<g transform="translate( 520.0, -35 )">
<rect x="0" y="0" width="233.41721481107228" height="20" shape-rendering="crispEdges" fill="#9d9d9d" stroke="#000000" stroke-width="2" />
<rect x="0" y="0" width="520.0" height="20" shape-rendering="crispEdges" fill="none" stroke="#000000" stroke-width="2" />
<title>0.45</title>
</g>
<rect x="0" y="-35" width="1040" height="20" fill="none" stroke="#000000" stroke-width="2" />
</g>
</svg>