<?xml version="1.0" encoding="UTF-8"?>
<svg xmlns="http://www.w3.org/2000/svg" xmlns:xlink="http://www.w3.org/1999/xlink"
     width="1990" height="940" viewBox="0 0 1990 940">
<defs>
<linearGradient x1="0%" y1="0%" x2="0%" y2="100%" id="d0">
<stop offset="0%" stop-color="#303030" />
<stop offset="25%" stop-color="#616161" />
<stop offset="50%" stop-color="#929292" />
<stop offset="75%" stop-color="#c4c4c4" />
<stop offset="100%" stop-color="#f5f5f5" />
</linearGradient>
</defs>
<rect x="0" y="0" width="1990" height="940" fill="#ffffff" />
<g transform="translate( 300, 125 )">
<g>
<title>[ 0.1, 2.5 ]</title>
<rect x="855.0" y="0.0" width="285.0" height="55.416666666666664" shape-rendering="crispEdges" fill="#ffffff" stroke="none" />
</g>
<g>
<title>[ 0.1, 0.75 ]</title>
<rect x="855.0" y="0.0" width="77.18749675589316" height="55.416666666666664" shape-rendering="crispEdges" fill="#1f77b3" stroke="none" />
</g>
<g>
<title>[ 4.3, 7.9 ]</title>
<rect x="0.0" y="55.416666666666664" width="285.0" height="55.416666666666664" shape-rendering="crispEdges" fill="#ffffff" stroke="none" />
</g>
<g>
<title>[ 4.3, 6.15 ]</title>
<rect x="0.0" y="55.416666666666664" width="146.45831078842775" height="55.416666666666664" shape-rendering="crispEdges" fill="#ff7e0e" stroke="none" />
</g>
<g>
<title>[ 0.1, 2.5 ]</title>
<rect x="855.0" y="55.416666666666664" width="285.0" height="55.416666666666664" shape-rendering="crispEdges" fill="#ffffff" stroke="none" />
</g>
<g>
<title>[ 0.76, 2.5 ]</title>
<rect x="933.3749967087061" y="55.416666666666664" width="206.62499178946052" height="55.416666666666664" shape-rendering="crispEdges" fill="#ff7e0e" stroke="none" />
</g>
<g>
<title>[ 4.3, 7.9 ]</title>
<rect x="0.0" y="110.83333333333333" width="285.0" height="55.416666666666664" shape-rendering="crispEdges" fill="#ffffff" stroke="none" />
</g>
<g>
<title>[ 6.15, 7.9 ]</title>
<rect x="146.45831078842775" y="110.83333333333333" width="138.54168921157225" height="55.416666666666664" shape-rendering="crispEdges" fill="#ff7e0e" stroke="none" />
</g>
<g>
<title>[ 0.1, 2.5 ]</title>
<rect x="855.0" y="110.83333333333333" width="285.0" height="55.416666666666664" shape-rendering="crispEdges" fill="#ffffff" stroke="none" />
</g>
<g>
<title>[ 0.76, 1.75 ]</title>
<rect x="933.3749967087061" y="110.83333333333333" width="117.56249532848615" height="55.416666666666664" shape-rendering="crispEdges" fill="#ff7e0e" stroke="none" />
</g>
<g>
<title>[ 4.3, 7.9 ]</title>
<rect x="0.0" y="166.25" width="285.0" height="55.416666666666664" shape-rendering="crispEdges" fill="#ffffff" stroke="none" />
</g>
<g>
<title>[ 6.15, 7.9 ]</title>
<rect x="146.45831078842775" y="166.25" width="138.54168921157225" height="55.416666666666664" shape-rendering="crispEdges" fill="#bcbc21" stroke="none" />
</g>
<g>
<title>[ 0.1, 2.5 ]</title>
<rect x="855.0" y="166.25" width="285.0" height="55.416666666666664" shape-rendering="crispEdges" fill="#ffffff" stroke="none" />
</g>
<g>
<title>[ 1.76, 2.5 ]</title>
<rect x="1052.1249919900054" y="166.25" width="87.87499650816136" height="55.416666666666664" shape-rendering="crispEdges" fill="#bcbc21" stroke="none" />
</g>
<g>
<title>[ 1.0, 6.9 ]</title>
<rect x="570.0" y="221.66666666666666" width="285.0" height="55.416666666666664" shape-rendering="crispEdges" fill="#ffffff" stroke="none" />
</g>
<g>
<title>[ 1.0, 2.6 ]</title>
<rect x="570.0" y="221.66666666666666" width="77.28813261641272" height="55.416666666666664" shape-rendering="crispEdges" fill="#1f77b3" stroke="none" />
</g>
<g>
<title>[ 1.0, 6.9 ]</title>
<rect x="570.0" y="277.0833333333333" width="285.0" height="55.416666666666664" shape-rendering="crispEdges" fill="#ffffff" stroke="none" />
</g>
<g>
<title>[ 2.6, 4.85 ]</title>
<rect x="647.2881326164128" y="277.0833333333333" width="108.68643604195421" height="55.416666666666664" shape-rendering="crispEdges" fill="#ff7e0e" stroke="none" />
</g>
<g>
<title>[ 0.1, 2.5 ]</title>
<rect x="855.0" y="277.0833333333333" width="285.0" height="55.416666666666664" shape-rendering="crispEdges" fill="#ffffff" stroke="none" />
</g>
<g>
<title>[ 0.1, 1.75 ]</title>
<rect x="855.0" y="277.0833333333333" width="195.9374920371923" height="55.416666666666664" shape-rendering="crispEdges" fill="#ff7e0e" stroke="none" />
</g>
<g>
<title>[ 1.0, 6.9 ]</title>
<rect x="570.0" y="332.5" width="285.0" height="55.416666666666664" shape-rendering="crispEdges" fill="#ffffff" stroke="none" />
</g>
<g>
<title>[ 4.85, 6.9 ]</title>
<rect x="755.9745686583669" y="332.5" width="99.02543134163301" height="55.416666666666664" shape-rendering="crispEdges" fill="#bcbc21" stroke="none" />
</g>
<g>
<title>[ 0.1, 2.5 ]</title>
<rect x="855.0" y="332.5" width="285.0" height="55.416666666666664" shape-rendering="crispEdges" fill="#ffffff" stroke="none" />
</g>
<g>
<title>[ 0.1, 1.75 ]</title>
<rect x="855.0" y="332.5" width="195.9374920371923" height="55.416666666666664" shape-rendering="crispEdges" fill="#bcbc21" stroke="none" />
</g>
<g>
<title>[ 1.0, 6.9 ]</title>
<rect x="570.0" y="387.9166666666667" width="285.0" height="55.416666666666664" shape-rendering="crispEdges" fill="#ffffff" stroke="none" />
</g>
<g>
<title>[ 2.6, 6.9 ]</title>
<rect x="647.2881326164128" y="387.9166666666667" width="207.71186738358725" height="55.416666666666664" shape-rendering="crispEdges" fill="#bcbc21" stroke="none" />
</g>
<g>
<title>[ 0.1, 2.5 ]</title>
<rect x="855.0" y="387.9166666666667" width="285.0" height="55.416666666666664" shape-rendering="crispEdges" fill="#ffffff" stroke="none" />
</g>
<g>
<title>[ 1.76, 2.5 ]</title>
<rect x="1052.1249919900054" y="387.9166666666667" width="87.87499650816136" height="55.416666666666664" shape-rendering="crispEdges" fill="#bcbc21" stroke="none" />
</g>
<g>
<title>[ 4.3, 7.9 ]</title>
<rect x="0.0" y="443.3333333333333" width="285.0" height="55.416666666666664" shape-rendering="crispEdges" fill="#ffffff" stroke="none" />
</g>
<g>
<title>[ 4.3, 5.45 ]</title>
<rect x="0.0" y="443.3333333333333" width="91.04165775356445" height="55.416666666666664" shape-rendering="crispEdges" fill="#1f77b3" stroke="none" />
</g>
<g>
<title>[ 4.3, 7.9 ]</title>
<rect x="0.0" y="498.75" width="285.0" height="55.416666666666664" shape-rendering="crispEdges" fill="#ffffff" stroke="none" />
</g>
<g>
<title>[ 5.45, 7.9 ]</title>
<rect x="91.04165775356452" y="498.75" width="193.95834224643548" height="55.416666666666664" shape-rendering="crispEdges" fill="#ff7e0e" stroke="none" />
</g>
<g>
<title>[ 2.0, 4.4 ]</title>
<rect x="285.0" y="498.75" width="285.0" height="55.416666666666664" shape-rendering="crispEdges" fill="#ffffff" stroke="none" />
</g>
<g>
<title>[ 2.0, 3.45 ]</title>
<rect x="285.0" y="498.75" width="172.18749882032478" height="55.416666666666664" shape-rendering="crispEdges" fill="#ff7e0e" stroke="none" />
</g>
<g>
<title>[ 0.1, 2.5 ]</title>
<rect x="855.0" y="498.75" width="285.0" height="55.416666666666664" shape-rendering="crispEdges" fill="#ffffff" stroke="none" />
</g>
<g>
<title>[ 0.1, 1.75 ]</title>
<rect x="855.0" y="498.75" width="195.9374920371923" height="55.416666666666664" shape-rendering="crispEdges" fill="#ff7e0e" stroke="none" />
</g>
<g>
<title>[ 4.3, 7.9 ]</title>
<rect x="0.0" y="554.1666666666666" width="285.0" height="55.416666666666664" shape-rendering="crispEdges" fill="#ffffff" stroke="none" />
</g>
<g>
<title>[ 5.45, 7.9 ]</title>
<rect x="91.04165775356452" y="554.1666666666666" width="193.95834224643548" height="55.416666666666664" shape-rendering="crispEdges" fill="#1f77b3" stroke="none" />
</g>
<g>
<title>[ 2.0, 4.4 ]</title>
<rect x="285.0" y="554.1666666666666" width="285.0" height="55.416666666666664" shape-rendering="crispEdges" fill="#ffffff" stroke="none" />
</g>
<g>
<title>[ 3.45, 4.4 ]</title>
<rect x="457.1874988203249" y="554.1666666666666" width="112.81250117967511" height="55.416666666666664" shape-rendering="crispEdges" fill="#1f77b3" stroke="none" />
</g>
<g>
<title>[ 0.1, 2.5 ]</title>
<rect x="855.0" y="554.1666666666666" width="285.0" height="55.416666666666664" shape-rendering="crispEdges" fill="#ffffff" stroke="none" />
</g>
<g>
<title>[ 0.1, 1.75 ]</title>
<rect x="855.0" y="554.1666666666666" width="195.9374920371923" height="55.416666666666664" shape-rendering="crispEdges" fill="#1f77b3" stroke="none" />
</g>
<g>
<title>[ 4.3, 7.9 ]</title>
<rect x="0.0" y="609.5833333333334" width="285.0" height="55.416666666666664" shape-rendering="crispEdges" fill="#ffffff" stroke="none" />
</g>
<g>
<title>[ 5.45, 7.9 ]</title>
<rect x="91.04165775356452" y="609.5833333333334" width="193.95834224643548" height="55.416666666666664" shape-rendering="crispEdges" fill="#bcbc21" stroke="none" />
</g>
<g>
<title>[ 0.1, 2.5 ]</title>
<rect x="855.0" y="609.5833333333334" width="285.0" height="55.416666666666664" shape-rendering="crispEdges" fill="#ffffff" stroke="none" />
</g>
<g>
<title>[ 1.76, 2.5 ]</title>
<rect x="1052.1249919900054" y="609.5833333333334" width="87.87499650816136" height="55.416666666666664" shape-rendering="crispEdges" fill="#bcbc21" stroke="none" />
</g>
<rect x="0" y="0" width="1140" height="665" fill="none" stroke="#000000" stroke-width="2" />
<text x="-120" y="40.20833333333333" font-size="25" text-anchor="end" fill="#000000">r 1</text>
<path d="M0,55.416666666666664 L1140,55.416666666666664" stroke="#000000" stroke-width="2" />
<text x="-120" y="95.625" font-size="25" text-anchor="end" fill="#000000">r 2</text>
<path d="M0,110.83333333333333 L1140,110.83333333333333" stroke="#000000" stroke-width="2" />
<text x="-120" y="151.04166666666666" font-size="25" text-anchor="end" fill="#000000">r 3</text>
<path d="M0,166.25 L1140,166.25" stroke="#000000" stroke-width="2" />
<text x="-120" y="206.45833333333334" font-size="25" text-anchor="end" fill="#000000">r 4</text>
<path d="M0,221.66666666666666 L1140,221.66666666666666" stroke="#000000" stroke-width="2" />
<text x="-120" y="261.875" font-size="25" text-anchor="end" fill="#000000">r 5</text>
<path d="M0,277.0833333333333 L1140,277.0833333333333" stroke="#000000" stroke-width="2" />
<text x="-120" y="317.29166666666663" font-size="25" text-anchor="end" fill="#000000">r 6</text>
<path d="M0,332.5 L1140,332.5" stroke="#000000" stroke-width="2" />
<text x="-120" y="372.7083333333333" font-size="25" text-anchor="end" fill="#000000">r 7</text>
<path d="M0,387.9166666666667 L1140,387.9166666666667" stroke="#000000" stroke-width="2" />
<text x="-120" y="428.125" font-size="25" text-anchor="end" fill="#000000">r 8</text>
<path d="M0,443.3333333333333 L1140,443.3333333333333" stroke="#000000" stroke-width="2" />
<text x="-120" y="483.54166666666663" font-size="25" text-anchor="end" fill="#000000">r 9</text>
<path d="M0,498.75 L1140,498.75" stroke="#000000" stroke-width="2" />
<text x="-120" y="538.9583333333334" font-size="25" text-anchor="end" fill="#000000">r 10</text>
<path d="M0,554.1666666666666 L1140,554.1666666666666" stroke="#000000" stroke-width="2" />
<text x="-120" y="594.375" font-size="25" text-anchor="end" fill="#000000">r 11</text>
<path d="M0,609.5833333333334 L1140,609.5833333333334" stroke="#000000" stroke-width="2" />
<text x="-120" y="649.7916666666667" font-size="25" text-anchor="end" fill="#000000">r 12</text>
<g transform="translate( 142.5, 715 )">
<text x="0" y="0" font-size="25" transform="rotate( 10 )" text-anchor="start" fill="#000000">sepal length (cm) | 0.2</text>
</g>
<path d="M285.0,0 L285.0,665" stroke="#000000" stroke-width="2" />
<g transform="translate( 427.5, 715 )">
<text x="0" y="0" font-size="25" transform="rotate( 10 )" text-anchor="start" fill="#000000">sepal width (cm) | 0.04</text>
</g>
<path d="M570.0,0 L570.0,665" stroke="#000000" stroke-width="2" />
<g transform="translate( 712.5, 715 )">
<text x="0" y="0" font-size="25" transform="rotate( 10 )" text-anchor="start" fill="#000000">petal length (cm) | 0.19</text>
</g>
<path d="M855.0,0 L855.0,665" stroke="#000000" stroke-width="2" />
<g transform="translate( 997.5, 715 )">
<text x="0" y="0" font-size="25" transform="rotate( 10 )" text-anchor="start" fill="#000000">petal width (cm) | 0.56</text>
</g>
</g>
<g transform="translate( 300, 125 )">
<text x="-67.5" y="-41.25" font-size="25" text-anchor="middle" fill="#000000">Rule</text>
<text x="-67.5" y="-15" font-size="25" text-anchor="middle" fill="#000000">Coverage</text>
<g>
<title>1.0</title>
<rect x="-105" y="0.0" width="75.0" height="55.416666666666664" shape-rendering="crispEdges" fill="#303030" stroke="#000000" stroke-width="2" />
</g>
<path d="M-105,0.0 L-30,0.0" stroke="#000000" stroke-width="2" />
<g>
<title>0.71</title>
<rect x="-105" y="55.416666666666664" width="53.57142857142857" height="55.416666666666664" shape-rendering="crispEdges" fill="#686868" stroke="#000000" stroke-width="2" />
</g>
<path d="M-105,55.416666666666664 L-30,55.416666666666664" stroke="#000000" stroke-width="2" />
<g>
<title>0.29</title>
<rect x="-105" y="110.83333333333333" width="21.428571428571427" height="55.416666666666664" shape-rendering="crispEdges" fill="#bdbdbd" stroke="#000000" stroke-width="2" />
</g>
<path d="M-105,110.83333333333333 L-30,110.83333333333333" stroke="#000000" stroke-width="2" />
<g>
<title>0.74</title>
<rect x="-105" y="166.25" width="55.714285714285715" height="55.416666666666664" shape-rendering="crispEdges" fill="#626262" stroke="#000000" stroke-width="2" />
</g>
<path d="M-105,166.25 L-30,166.25" stroke="#000000" stroke-width="2" />
<g>
<title>1.0</title>
<rect x="-105" y="221.66666666666666" width="75.0" height="55.416666666666664" shape-rendering="crispEdges" fill="#303030" stroke="#000000" stroke-width="2" />
</g>
<path d="M-105,221.66666666666666 L-30,221.66666666666666" stroke="#000000" stroke-width="2" />
<g>
<title>0.91</title>
<rect x="-105" y="277.0833333333333" width="68.57142857142857" height="55.416666666666664" shape-rendering="crispEdges" fill="#404040" stroke="#000000" stroke-width="2" />
</g>
<path d="M-105,277.0833333333333 L-30,277.0833333333333" stroke="#000000" stroke-width="2" />
<g>
<title>0.09</title>
<rect x="-105" y="332.5" width="6.428571428571429" height="55.416666666666664" shape-rendering="crispEdges" fill="#e5e5e5" stroke="#000000" stroke-width="2" />
</g>
<path d="M-105,332.5 L-30,332.5" stroke="#000000" stroke-width="2" />
<g>
<title>0.91</title>
<rect x="-105" y="387.9166666666667" width="68.57142857142857" height="55.416666666666664" shape-rendering="crispEdges" fill="#404040" stroke="#000000" stroke-width="2" />
</g>
<path d="M-105,387.9166666666667 L-30,387.9166666666667" stroke="#000000" stroke-width="2" />
<g>
<title>0.89</title>
<rect x="-105" y="443.3333333333333" width="66.42857142857143" height="55.416666666666664" shape-rendering="crispEdges" fill="#464646" stroke="#000000" stroke-width="2" />
</g>
<path d="M-105,443.3333333333333 L-30,443.3333333333333" stroke="#000000" stroke-width="2" />
<g>
<title>0.89</title>
<rect x="-105" y="498.75" width="66.42857142857143" height="55.416666666666664" shape-rendering="crispEdges" fill="#464646" stroke="#000000" stroke-width="2" />
</g>
<path d="M-105,498.75 L-30,498.75" stroke="#000000" stroke-width="2" />
<g>
<title>0.11</title>
<rect x="-105" y="554.1666666666666" width="8.571428571428571" height="55.416666666666664" shape-rendering="crispEdges" fill="#dfdfdf" stroke="#000000" stroke-width="2" />
</g>
<path d="M-105,554.1666666666666 L-30,554.1666666666666" stroke="#000000" stroke-width="2" />
<g>
<title>0.91</title>
<rect x="-105" y="609.5833333333334" width="68.57142857142857" height="55.416666666666664" shape-rendering="crispEdges" fill="#404040" stroke="#000000" stroke-width="2" />
</g>
<path d="M-105,609.5833333333334 L-30,609.5833333333334" stroke="#000000" stroke-width="2" />
<rect x="-105" y="0" width="75" height="665" fill="none" stroke="#000000" stroke-width="2" />
</g>
<g transform="translate( 1440, 125 )">
<text x="67.5" y="-41.25" font-size="25" text-anchor="middle" fill="#000000">Rule</text>
<text x="67.5" y="-15" font-size="25" text-anchor="middle" fill="#000000">Certainty</text>
<g>
<title>1.0</title>
<rect x="30" y="0.0" width="75.0" height="55.416666666666664" shape-rendering="crispEdges" fill="#1f77b3" stroke="#000000" stroke-width="2" />
</g>
<g>
<title>0.0</title>
<rect x="105.0" y="0.0" width="0.0" height="55.416666666666664" shape-rendering="crispEdges" fill="#ff7e0e" stroke="#000000" stroke-width="2" />
</g>
<g>
<title>0.0</title>
<rect x="105.0" y="0.0" width="0.0" height="55.416666666666664" shape-rendering="crispEdges" fill="#bcbc21" stroke="#000000" stroke-width="2" />
</g>
<path d="M30,0.0 L105,0.0" stroke="#000000" stroke-width="2" />
<g>
<title>0.0</title>
<rect x="30" y="55.416666666666664" width="0.0" height="55.416666666666664" shape-rendering="crispEdges" fill="#1f77b3" stroke="#000000" stroke-width="2" />
</g>
<g>
<title>0.78</title>
<rect x="30.0" y="55.416666666666664" width="58.59375" height="55.416666666666664" shape-rendering="crispEdges" fill="#ff7e0e" stroke="#000000" stroke-width="2" />
</g>
<g>
<title>0.22</title>
<rect x="88.59375" y="55.416666666666664" width="16.40625" height="55.416666666666664" shape-rendering="crispEdges" fill="#bcbc21" stroke="#000000" stroke-width="2" />
</g>
<path d="M30,55.416666666666664 L105,55.416666666666664" stroke="#000000" stroke-width="2" />
<g>
<title>0.0</title>
<rect x="30" y="110.83333333333333" width="0.0" height="55.416666666666664" shape-rendering="crispEdges" fill="#1f77b3" stroke="#000000" stroke-width="2" />
</g>
<g>
<title>0.83</title>
<rect x="30.0" y="110.83333333333333" width="62.5" height="55.416666666666664" shape-rendering="crispEdges" fill="#ff7e0e" stroke="#000000" stroke-width="2" />
</g>
<g>
<title>0.17</title>
<rect x="92.5" y="110.83333333333333" width="12.5" height="55.416666666666664" shape-rendering="crispEdges" fill="#bcbc21" stroke="#000000" stroke-width="2" />
</g>
<path d="M30,110.83333333333333 L105,110.83333333333333" stroke="#000000" stroke-width="2" />
<g>
<title>0.0</title>
<rect x="30" y="166.25" width="0.0" height="55.416666666666664" shape-rendering="crispEdges" fill="#1f77b3" stroke="#000000" stroke-width="2" />
</g>
<g>
<title>0.0</title>
<rect x="30.0" y="166.25" width="0.0" height="55.416666666666664" shape-rendering="crispEdges" fill="#ff7e0e" stroke="#000000" stroke-width="2" />
</g>
<g>
<title>1.0</title>
<rect x="30.0" y="166.25" width="75.0" height="55.416666666666664" shape-rendering="crispEdges" fill="#bcbc21" stroke="#000000" stroke-width="2" />
</g>
<path d="M30,166.25 L105,166.25" stroke="#000000" stroke-width="2" />
<g>
<title>1.0</title>
<rect x="30" y="221.66666666666666" width="75.0" height="55.416666666666664" shape-rendering="crispEdges" fill="#1f77b3" stroke="#000000" stroke-width="2" />
</g>
<g>
<title>0.0</title>
<rect x="105.0" y="221.66666666666666" width="0.0" height="55.416666666666664" shape-rendering="crispEdges" fill="#ff7e0e" stroke="#000000" stroke-width="2" />
</g>
<g>
<title>0.0</title>
<rect x="105.0" y="221.66666666666666" width="0.0" height="55.416666666666664" shape-rendering="crispEdges" fill="#bcbc21" stroke="#000000" stroke-width="2" />
</g>
<path d="M30,221.66666666666666 L105,221.66666666666666" stroke="#000000" stroke-width="2" />
<g>
<title>0.0</title>
<rect x="30" y="277.0833333333333" width="0.0" height="55.416666666666664" shape-rendering="crispEdges" fill="#1f77b3" stroke="#000000" stroke-width="2" />
</g>
<g>
<title>1.0</title>
<rect x="30.0" y="277.0833333333333" width="75.0" height="55.416666666666664" shape-rendering="crispEdges" fill="#ff7e0e" stroke="#000000" stroke-width="2" />
</g>
<g>
<title>0.0</title>
<rect x="105.0" y="277.0833333333333" width="0.0" height="55.416666666666664" shape-rendering="crispEdges" fill="#bcbc21" stroke="#000000" stroke-width="2" />
</g>
<path d="M30,277.0833333333333 L105,277.0833333333333" stroke="#000000" stroke-width="2" />
<g>
<title>0.0</title>
<rect x="30" y="332.5" width="0.0" height="55.416666666666664" shape-rendering="crispEdges" fill="#1f77b3" stroke="#000000" stroke-width="2" />
</g>
<g>
<title>0.4</title>
<rect x="30.0" y="332.5" width="30.0" height="55.416666666666664" shape-rendering="crispEdges" fill="#ff7e0e" stroke="#000000" stroke-width="2" />
</g>
<g>
<title>0.6</title>
<rect x="60.0" y="332.5" width="45.0" height="55.416666666666664" shape-rendering="crispEdges" fill="#bcbc21" stroke="#000000" stroke-width="2" />
</g>
<path d="M30,332.5 L105,332.5" stroke="#000000" stroke-width="2" />
<g>
<title>0.0</title>
<rect x="30" y="387.9166666666667" width="0.0" height="55.416666666666664" shape-rendering="crispEdges" fill="#1f77b3" stroke="#000000" stroke-width="2" />
</g>
<g>
<title>0.03</title>
<rect x="30.0" y="387.9166666666667" width="2.272727272727273" height="55.416666666666664" shape-rendering="crispEdges" fill="#ff7e0e" stroke="#000000" stroke-width="2" />
</g>
<g>
<title>0.97</title>
<rect x="32.27272727272727" y="387.9166666666667" width="72.72727272727273" height="55.416666666666664" shape-rendering="crispEdges" fill="#bcbc21" stroke="#000000" stroke-width="2" />
</g>
<path d="M30,387.9166666666667 L105,387.9166666666667" stroke="#000000" stroke-width="2" />
<g>
<title>0.91</title>
<rect x="30" y="443.3333333333333" width="68.38235294117646" height="55.416666666666664" shape-rendering="crispEdges" fill="#1f77b3" stroke="#000000" stroke-width="2" />
</g>
<g>
<title>0.09</title>
<rect x="98.38235294117646" y="443.3333333333333" width="6.61764705882353" height="55.416666666666664" shape-rendering="crispEdges" fill="#ff7e0e" stroke="#000000" stroke-width="2" />
</g>
<g>
<title>0.0</title>
<rect x="105.0" y="443.3333333333333" width="0.0" height="55.416666666666664" shape-rendering="crispEdges" fill="#bcbc21" stroke="#000000" stroke-width="2" />
</g>
<path d="M30,443.3333333333333 L105,443.3333333333333" stroke="#000000" stroke-width="2" />
<g>
<title>0.0</title>
<rect x="30" y="498.75" width="0.0" height="55.416666666666664" shape-rendering="crispEdges" fill="#1f77b3" stroke="#000000" stroke-width="2" />
</g>
<g>
<title>0.91</title>
<rect x="30.0" y="498.75" width="68.38235294117646" height="55.416666666666664" shape-rendering="crispEdges" fill="#ff7e0e" stroke="#000000" stroke-width="2" />
</g>
<g>
<title>0.09</title>
<rect x="98.38235294117646" y="498.75" width="6.61764705882353" height="55.416666666666664" shape-rendering="crispEdges" fill="#bcbc21" stroke="#000000" stroke-width="2" />
</g>
<path d="M30,498.75 L105,498.75" stroke="#000000" stroke-width="2" />
<g>
<title>1.0</title>
<rect x="30" y="554.1666666666666" width="75.0" height="55.416666666666664" shape-rendering="crispEdges" fill="#1f77b3" stroke="#000000" stroke-width="2" />
</g>
<g>
<title>0.0</title>
<rect x="105.0" y="554.1666666666666" width="0.0" height="55.416666666666664" shape-rendering="crispEdges" fill="#ff7e0e" stroke="#000000" stroke-width="2" />
</g>
<g>
<title>0.0</title>
<rect x="105.0" y="554.1666666666666" width="0.0" height="55.416666666666664" shape-rendering="crispEdges" fill="#bcbc21" stroke="#000000" stroke-width="2" />
</g>
<path d="M30,554.1666666666666 L105,554.1666666666666" stroke="#000000" stroke-width="2" />
<g>
<title>0.0</title>
<rect x="30" y="609.5833333333334" width="0.0" height="55.416666666666664" shape-rendering="crispEdges" fill="#1f77b3" stroke="#000000" stroke-width="2" />
</g>
<g>
<title>0.03</title>
<rect x="30.0" y="609.5833333333334" width="2.272727272727273" height="55.416666666666664" shape-rendering="crispEdges" fill="#ff7e0e" stroke="#000000" stroke-width="2" />
</g>
<g>
<title>0.97</title>
<rect x="32.27272727272727" y="609.5833333333334" width="72.72727272727273" height="55.416666666666664" shape-rendering="crispEdges" fill="#bcbc21" stroke="#000000" stroke-width="2" />
</g>
<path d="M30,609.5833333333334 L105,609.5833333333334" stroke="#000000" stroke-width="2" />
<rect x="170" y="0" width="35" height="35" fill="#1f77b3" stroke="#000000" stroke-width="2" />
<text x="212.0" y="30.0" font-size="25" text-anchor="start" fill="#000000">setosa</text>
<rect x="170" y="35" width="35" height="35" fill="#ff7e0e" stroke="#000000" stroke-width="2" />
<text x="212.0" y="65.0" font-size="25" text-anchor="start" fill="#000000">versicolor</text>
<rect x="170" y="70" width="35" height="35" fill="#bcbc21" stroke="#000000" stroke-width="2" />
<text x="212.0" y="100.0" font-size="25" text-anchor="start" fill="#000000">virginica</text>
<rect x="170" y="140" width="35" height="175" fill="url(#d0)" stroke="#000000" stroke-width="2" />
<path d="M212.0,140 L212.0,315" stroke="#000000" stroke-width="2.4" />
<path d="M212.0,140.0 L222.0,140.0" stroke="#000000" stroke-width="2.4" />
<text x="226.0" y="146.25" font-size="25" text-anchor="start" fill="#000000">1.0</text>
<path d="M212.0,183.75 L222.0,183.75" stroke="#000000" stroke-width="2.4" />
<text x="226.0" y="190.0" font-size="25" text-anchor="start" fill="#000000">0.75</text>
<path d="M212.0,227.5 L222.0,227.5" stroke="#000000" stroke-width="2.4" />
<text x="226.0" y="233.75" font-size="25" text-anchor="start" fill="#000000">0.5</text>
<path d="M212.0,271.25 L222.0,271.25" stroke="#000000" stroke-width="2.4" />
<text x="226.0" y="277.5" font-size="25" text-anchor="start" fill="#000000">0.25</text>
<path d="M212.0,315.0 L222.0,315.0" stroke="#000000" stroke-width="2.4" />
<text x="226.0" y="321.25" font-size="25" text-anchor="start" fill="#000000">0.0</text>
<text x="170" y="350" font-size="25" text-anchor="start" fill="#000000"><tspan x="170" dy="0em"></tspan><tspan x="170" dy="1em">trees 3</tspan><tspan x="170" dy="1em">max-depth 3</tspan><tspan x="170" dy="1em"></tspan><tspan x="170" dy="1em">accuracy 0.96</tspan><tspan x="170" dy="1em">error 0.04</tspan><tspan x="170" dy="1em"></tspan><tspan x="170" dy="1em">type global</tspan><tspan x="170" dy="1em"></tspan><tspan x="170" dy="1em">rules 12</tspan><tspan x="170" dy="1em">by raw</tspan><tspan x="170" dy="1em"></tspan><tspan x="170" dy="1em">features 4</tspan><tspan x="170" dy="1em">by raw</tspan></text>
</g>
<g transform="translate( 300, 125 )">
<text x="570.0" y="-65" font-size="25" text-anchor="middle" fill="#000000">Feature Importance</text>
<g transform="translate( 0.0, -50 )">
<rect x="0" y="0" width="58.19327550835189" height="20" shape-rendering="crispEdges" fill="#cdcdcd" stroke="#000000" stroke-width="2" />
<title>0.2</title>
</g>
<g transform="translate( 285.0, -50 )">
<rect x="0" y="0" width="10.94713518911496" height="20" shape-rendering="crispEdges" fill="#eeeeee" stroke="#000000" stroke-width="2" />
<title>0.04</title>
</g>
<g transform="translate( 570.0, -50 )">
<rect x="0" y="0" width="55.143928772782395" height="20" shape-rendering="crispEdges" fill="#cfcfcf" stroke="#000000" stroke-width="2" />
<title>0.19</title>
</g>
<g transform="translate( 855.0, -50 )">
<rect x="0" y="0" width="160.71566052975078" height="20" shape-rendering="crispEdges" fill="#868686" stroke="#000000" stroke-width="2" />
<title>0.56</title>
</g>
<rect x="0" y="-50" width="1140" height="20" fill="none" stroke="#000000" stroke-width="2" />
</g>
</svg>